<svg width="25" height="23" viewBox="0 0 25 23" fill="none" xmlns="http://www.w3.org/2000/svg">
<path d="M0.939341 10.4393C0.353554 11.0251 0.353554 11.9749 0.939341 12.5607L10.4853 22.1066C11.0711 22.6924 12.0208 22.6924 12.6066 22.1066C13.1924 21.5208 13.1924 20.5711 12.6066 19.9853L4.12132 11.5L12.6066 3.01472C13.1924 2.42893 13.1924 1.47919 12.6066 0.893398C12.0208 0.307611 11.0711 0.307611 10.4853 0.893398L0.939341 10.4393ZM25 10L2 10V13L25 13V10Z" fill="#33ACFE"/>
</svg>
