<svg width="20" height="32" viewBox="0 0 20 32" fill="none" xmlns="http://www.w3.org/2000/svg">
<path d="M16 4L4 16L16 28" stroke="#33ACFE" stroke-width="7" stroke-linecap="round" stroke-linejoin="round"/>
</svg>
