<svg width="1024" height="406" viewBox="0 0 1024 406" fill="none" xmlns="http://www.w3.org/2000/svg">
<g clip-path="url(#clip0_3961_55102)">
<path d="M976.944 107.644L970.345 53.183L930.971 77.609L976.944 107.644Z" fill="#F1F6F7"/>
<path d="M979.078 26.764L1026.58 54.321L1030.78 8.22504L979.078 26.764Z" fill="#F1F6F7"/>
<path d="M478.33 293.109L441.492 252.415L423.431 295.043L478.33 293.109Z" fill="#F1F6F7"/>
<path d="M548.872 218.016L598.89 195.331L563.706 165.196L548.872 218.016Z" fill="#F1F6F7"/>
<path d="M362.644 216.128L417.364 211.289L394.177 171.209L362.644 216.128Z" fill="#F1F6F7"/>
<path d="M514.346 221.212L508.265 166.692L468.663 190.746L514.346 221.212Z" fill="#F1F6F7"/>
<path d="M716.293 183.516L750.04 226.799L771.189 185.609L716.293 183.516Z" fill="#F1F6F7"/>
<path d="M649.4 241.981L597.849 260.94L630.724 293.571L649.4 241.981Z" fill="#F1F6F7"/>
<path d="M834.988 257.504L780.062 258.322L800.239 299.992L834.988 257.504Z" fill="#F1F6F7"/>
<path d="M684.068 241.318L686.121 296.136L727.388 275.048L684.068 241.318Z" fill="#F1F6F7"/>
<path d="M949.958 281.232L913.116 240.538L895.051 283.166L949.958 281.232Z" fill="#F1F6F7"/>
<path d="M846.323 196.333L901.049 191.494L877.857 151.414L846.323 196.333Z" fill="#F1F6F7"/>
<path d="M998.024 201.419L991.946 146.899L952.351 170.953L998.024 201.419Z" fill="#F1F6F7"/>
<path d="M39.4717 166.323L86.9706 193.88L91.1734 147.783L39.4717 166.323Z" fill="#F1F6F7"/>
<path d="M27.8701 285.343L81.832 295.613L70.4902 250.733L27.8701 285.343Z" fill="#F1F6F7"/>
<path d="M551.68 357.07L496.752 357.888L516.932 399.559L551.68 357.07Z" fill="#F1F6F7"/>
<path d="M768.348 306.127L716.8 325.086L749.674 357.717L768.348 306.127Z" fill="#F1F6F7"/>
<path d="M-2.18568 268.074L24.3291 220.031L-21.915 216.877L-2.18568 268.074Z" fill="#F1F6F7"/>
<path d="M180.059 320.444L173.462 265.984L134.09 290.41L180.059 320.444Z" fill="#F1F6F7"/>
<path d="M295.479 300.191L349.442 310.461L338.1 265.581L295.479 300.191Z" fill="#F1F6F7"/>
<path d="M144.426 191.409L191.925 218.966L196.127 172.869L144.426 191.409Z" fill="#F1F6F7"/>
<path d="M265.424 282.922L291.938 234.878L245.695 231.725L265.424 282.922Z" fill="#F1F6F7"/>
<path d="M842.038 378.697L805.196 338.003L787.131 380.632L842.038 378.697Z" fill="#F1F6F7"/>
<path d="M399.419 380.605L449.435 357.921L414.253 327.786L399.419 380.605Z" fill="#F1F6F7"/>
<path d="M199.224 384.978L253.943 380.139L230.756 340.059L199.224 384.978Z" fill="#F1F6F7"/>
<path d="M348.356 406.116L342.275 351.596L302.674 375.65L348.356 406.116Z" fill="#F1F6F7"/>
<path d="M602.605 343.969L636.352 387.252L657.502 346.062L602.605 343.969Z" fill="#F1F6F7"/>
<path d="M697.337 372.794L699.4 427.613L740.657 406.525L697.337 372.794Z" fill="#F1F6F7"/>
<path d="M874.583 326.792L876.646 381.611L917.903 360.523L874.583 326.792Z" fill="#F1F6F7"/>
<path d="M933.244 408.974L987.96 404.135L964.778 364.055L933.244 408.974Z" fill="#F1F6F7"/>
<path d="M1035.14 359.932L1029.06 305.412L989.452 329.466L1035.14 359.932Z" fill="#F1F6F7"/>
<path d="M48.4704 377.686L11.6324 336.991L-6.42871 379.62L48.4704 377.686Z" fill="#F1F6F7"/>
<path d="M99.5029 347.72L101.563 402.539L142.824 381.451L99.5029 347.72Z" fill="#F1F6F7"/>
</g>
<defs>
<clipPath id="clip0_3961_55102">
<rect width="1442" height="406" fill="white" transform="matrix(1 0 0 -1 -418 406)"/>
</clipPath>
</defs>
</svg>
