<svg width="83" height="83" viewBox="0 0 83 83" fill="none" xmlns="http://www.w3.org/2000/svg">
<path d="M0.363281 20.2727C0.363281 9.22702 9.31759 0.272705 20.3633 0.272705H62.1815C73.2271 0.272705 82.1815 9.22701 82.1815 20.2727V62.0909C82.1815 73.1366 73.2272 82.0909 62.1815 82.0909H20.3633C9.3176 82.0909 0.363281 73.1366 0.363281 62.0909V20.2727Z" fill="black" fill-opacity="0.6"/>
<path d="M27.6357 17.3181V65.0454L65.1357 41.1818L27.6357 17.3181Z" fill="white"/>
</svg>
