<svg width="295" height="56" viewBox="0 0 295 56" fill="none" xmlns="http://www.w3.org/2000/svg" xmlns:xlink="http://www.w3.org/1999/xlink">
<path d="M25.9975 50.5786C38.3248 50.5786 48.3182 40.2037 48.3182 27.4055C48.3182 14.6074 38.3248 4.23242 25.9975 4.23242C13.6701 4.23242 3.67676 14.6074 3.67676 27.4055C3.67676 40.2037 13.6701 50.5786 25.9975 50.5786Z" fill="url(#paint0_linear_3789_42085)"/>
<path d="M25.9975 50.5786C38.3248 50.5786 48.3182 40.2037 48.3182 27.4055C48.3182 14.6074 38.3248 4.23242 25.9975 4.23242C13.6701 4.23242 3.67676 14.6074 3.67676 27.4055C3.67676 40.2037 13.6701 50.5786 25.9975 50.5786Z" stroke="#194E71" stroke-width="4" stroke-miterlimit="10"/>
<path d="M40.1449 12.4143C38.0886 3.72202 27.5119 -1.23568 16.5216 1.34702C5.53134 3.92971 -1.70018 13.0509 0.346364 21.7432C1.56965 26.9143 6.37392 30.3586 11.1434 32.0874C11.3579 32.1663 11.843 32.2355 11.9589 32.4278C12.1 32.6567 11.9067 33.4874 11.8932 33.7644L11.7463 36.5393C11.5666 39.9567 11.2922 43.3509 11.0159 46.7567C11.1279 46.824 11.2381 46.8932 11.3482 46.9701L11.1318 46.8067C11.7212 47.2374 12.4247 47.4528 13.0527 47.8124C13.1993 47.7091 13.3756 47.6558 13.5552 47.6605C17.1149 47.6759 20.6495 48.1028 24.1706 48.6009C25.9796 48.869 27.8011 49.0462 29.628 49.1317C30.401 49.1644 31.3673 49.074 32.2795 49.1432C32.4347 48.6793 32.5535 48.2042 32.635 47.722C33.0699 45.374 33.3617 42.9278 34.1328 40.6874C34.8326 38.6121 34.943 36.3847 34.4516 34.2509C34.2584 32.7124 33.8583 30.947 34.0419 29.322C34.1118 28.5903 34.3435 27.8831 34.7202 27.2509C35.7155 25.6297 37.3717 24.5355 38.3457 22.8913C40.1912 19.7643 41.0087 16.024 40.1449 12.4143Z" fill="#A56A36"/>
<path d="M15.976 37.5787C16.003 37.4863 16.034 37.3863 16.0629 37.2998C15.7363 37.8191 15.7827 38.2306 15.976 37.5787Z" fill="#A56A36"/>
<path d="M54.267 21.0593C54.4777 20.6074 54.6671 20.1458 54.8468 19.6804C55.0532 19.2371 55.1838 18.7627 55.2333 18.2766C55.3106 16.5574 53.4071 16.2131 52.1026 15.9035C50.3608 15.4902 48.5612 15.3745 46.7804 15.5612C46.2161 15.6208 45.6344 15.7189 45.1629 16.0324C44.4421 16.5131 44.5696 17.1458 44.4285 17.8593C44.2527 18.74 43.8372 19.6881 43.4932 20.5189C42.5424 22.8266 41.1085 24.9997 39.1373 26.5631C38.5189 27.0535 37.7729 27.3016 37.0115 27.5016C36.3158 27.6939 35.6065 27.9651 34.8857 27.9574C34.4296 27.9574 34.306 27.8593 34.1958 28.3208C34.1249 28.7663 34.1178 29.2195 34.1745 29.667C34.2306 30.4747 34.6132 31.2651 34.6403 32.0554C34.6519 32.3785 34.3079 33.7862 34.5881 33.9535C35.4674 34.5035 36.4201 34.8997 37.4444 34.8747C38.1498 34.8593 38.8319 34.642 39.5045 34.4247L41.6843 33.7247C41.9985 33.6402 42.2986 33.5106 42.5752 33.3401C43.1144 32.9689 43.3347 32.342 43.8005 31.9131C44.328 31.4285 44.9716 31.2093 45.5513 30.7747C46.5601 30.0189 46.9698 28.6035 47.8336 27.5804C48.7903 26.4497 50.3459 26.1112 51.3972 25.1035C51.9886 24.542 52.4872 23.7862 53.0051 23.1477C53.5076 22.504 53.9313 21.8029 54.267 21.0593Z" fill="#8F5C2E"/>
<path d="M54.9001 20.2899C55.0634 19.703 55.1466 19.097 55.1475 18.488C55.1475 18.1034 55.0741 17.6996 54.7977 17.438C54.6286 17.2944 54.4311 17.1876 54.218 17.1246C52.3517 16.4342 50.3747 16.0875 48.3837 16.1015C46.6193 16.1419 46.511 17.6842 45.91 19.1072C44.9322 21.4149 43.9002 23.7592 42.3252 25.7361C41.5444 26.7368 40.6005 27.6 39.5327 28.2899C38.2205 29.1188 36.7209 28.8842 35.2367 29.2822C34.8927 29.3765 34.5081 29.5265 34.3883 29.8592C34.2917 30.1246 34.4811 30.3419 34.4192 30.6188C34.3142 31.1082 34.2381 31.6032 34.1912 32.1015C34.1912 32.1938 34.1757 32.2572 34.1699 32.3034C34.1699 32.5284 34.1699 32.7515 34.1699 32.9765C34.1773 33.7726 34.238 34.5673 34.3516 35.3553C34.3864 35.5822 34.4269 35.8072 34.4675 36.0342C34.4675 36.0457 34.4675 36.0572 34.4772 36.0688C34.912 37.5149 35.6638 39.6534 37.3296 40.0688C38.2418 40.2976 39.2061 40.0899 40.097 39.7899C43.8074 38.5438 46.828 35.7399 49.0272 32.513C50.4921 30.363 51.6322 28.0169 52.6526 25.6303C53.329 24.038 54.417 22.138 54.9001 20.2899Z" fill="#F9AA3A"/>
<path d="M29.5187 37.2037C30.5191 36.9693 31.1618 36.0677 30.9541 35.19C30.7464 34.3123 29.767 33.7908 28.7666 34.0252C27.7661 34.2597 27.1234 35.1612 27.3311 36.0389C27.5388 36.9167 28.5182 37.4381 29.5187 37.2037Z" fill="#E5E5E4"/>
<path d="M40.9922 45.0613C41.0076 45.044 41.0211 45.0248 41.0385 45.0075L41.2144 44.8671C41.284 44.7863 41.3535 44.7075 41.4289 44.6305C41.445 44.4862 41.4385 44.3402 41.4096 44.1978C41.2897 43.3209 41.1194 42.4515 40.8994 41.594C39.9467 38.1209 38.0895 35.2767 36.3 32.2036C35.527 30.8863 34.2032 29.1267 35.0438 27.6324C35.8845 26.1382 37.7668 25.2997 38.9224 24.0267C41.9777 20.6555 43.4928 16.2594 42.4261 11.7536C40.368 3.0632 29.8009 -1.8945 18.8009 0.680505C7.80098 3.25551 0.569457 12.392 2.62567 21.0844C3.03408 22.8681 3.82515 24.5429 4.9447 25.994C5.99291 27.3357 7.32501 28.4315 8.84648 29.2036C10.52 30.0574 12.2999 30.6997 13.9136 31.6574C14.9552 32.2767 14.3735 33.8844 14.2576 34.8305C14.0746 36.3395 13.9161 37.8517 13.7822 39.3671C13.5245 42.2273 13.3673 45.0921 13.3106 47.9613C13.4675 48.0677 13.6179 48.1832 13.7609 48.3074C14.1152 48.4574 14.4676 48.61 14.818 48.7651C15.3146 48.9882 15.8055 49.219 16.3022 49.4382L16.7679 49.6305C16.9186 49.6825 17.2742 49.8228 17.3322 49.8344C19.6107 49.8344 21.893 49.8344 24.1695 49.9478C25.329 50.0055 26.4885 50.1171 27.648 50.1517C28.0829 50.1651 28.5196 50.2748 28.9467 50.2575C31.975 50.1305 34.9549 48.944 37.5426 47.4228C38.2151 47.0267 38.8432 46.5786 39.4751 46.1209C39.9254 45.7921 40.4047 45.4998 40.8453 45.1594C40.8923 45.1239 40.9413 45.0911 40.9922 45.0613Z" fill="#F9AA3A"/>
<path d="M30.8973 48.3884C32.2697 48.0669 33.1629 46.8793 32.8923 45.7359C32.6218 44.5925 31.2899 43.9262 29.9175 44.2478C28.5451 44.5694 27.6519 45.757 27.9225 46.9004C28.1931 48.0438 29.5249 48.71 30.8973 48.3884Z" fill="#CBCBCA"/>
<path d="M32.8225 45.4883C33.095 46.6422 32.2544 47.8172 30.948 48.1229C29.6416 48.4287 28.3584 47.7383 28.0878 46.5979C27.8173 45.4575 28.656 44.271 29.9624 43.9652C31.2688 43.6595 32.552 44.3402 32.8225 45.4883Z" fill="url(#paint1_radial_3789_42085)"/>
<path d="M28.2791 37.6794C29.6515 37.3579 30.5447 36.1703 30.2742 35.0269C30.0036 33.8835 28.6717 33.2173 27.2994 33.5388C25.927 33.8604 25.0338 35.048 25.3043 36.1914C25.5749 37.3348 26.9068 38.001 28.2791 37.6794Z" fill="#CBCBCA"/>
<path d="M30.2371 42.7624C28.9771 43.4951 26.8146 43.2451 26.4262 41.6086C26.1556 40.4644 27.0504 39.2759 28.4225 38.9548C29.7946 38.6336 31.128 39.299 31.3986 40.4432C31.6092 41.3336 31.1145 42.249 30.2371 42.7624Z" fill="#CBCBCA"/>
<path d="M31.325 40.1978C31.5956 41.3516 30.7568 42.5247 29.4485 42.8324C28.1402 43.1401 26.8609 42.4478 26.5884 41.3074C26.3159 40.167 27.1565 38.9805 28.4649 38.6728C29.7732 38.3651 31.0525 39.0497 31.325 40.1978Z" fill="url(#paint2_radial_3789_42085)"/>
<path d="M25.9984 50.5786C38.3258 50.5786 48.3191 40.2037 48.3191 27.4055C48.3191 14.6074 38.3258 4.23242 25.9984 4.23242C13.6711 4.23242 3.67773 14.6074 3.67773 27.4055C3.67773 40.2037 13.6711 50.5786 25.9984 50.5786Z" stroke="#194E71" stroke-width="4" stroke-miterlimit="10"/>
<path d="M30.2063 34.7798C30.4769 35.9337 29.6381 37.1087 28.3298 37.4144C27.0215 37.7202 25.7402 37.0298 25.4697 35.8894C25.1991 34.749 26.0378 33.5625 27.3462 33.2567C28.6545 32.951 29.9338 33.6317 30.2063 34.7798Z" fill="url(#paint3_radial_3789_42085)"/>
<path d="M40.1448 12.4143C38.0886 3.72202 27.5119 -1.23568 16.5216 1.34702C5.53134 3.92971 -1.70018 13.0509 0.346364 21.7432C1.38029 26.1139 4.97235 29.2509 8.93939 31.1612C8.93939 31.1612 13.4091 33.2756 16.6598 33.2756C19.9105 33.2756 34.7202 27.2509 34.7202 27.2509C35.7155 25.6297 37.3717 24.5355 38.3457 22.8913C40.1912 19.7643 41.0087 16.024 40.1448 12.4143Z" fill="#A56A36"/>
<path d="M35.0438 27.6324C35.8845 26.1382 37.7668 25.2997 38.9224 24.0267C41.9777 20.6555 43.4928 16.2594 42.4261 11.7536C40.3679 3.0632 29.8009 -1.8945 18.8009 0.680505C7.80098 3.25551 0.569457 12.392 2.62567 21.0844C3.03408 22.8681 3.82515 24.5429 4.9447 25.994C5.99291 27.3357 7.82401 28.8511 9.34548 29.6232C14.3142 32.1445 15.8469 32.4638 22.3482 32.4638L35.0438 27.6324Z" fill="#F9AA3A"/>
<path opacity="0.25" d="M21.3015 40.2631C21.3734 40.4449 21.4624 40.6188 21.567 40.782C22.7352 42.5632 25.709 42.6149 27.4592 43.3314C27.8213 43.4617 28.9273 44.0371 29.6683 44.7772C30.0389 45.1473 31.1138 46.8106 30.78 48.4777C30.4094 50.328 29.6683 52.9183 28.1862 54.7686C27.5475 55.373 25.5924 56.9889 22.9986 55.1386C22.2575 54.3985 21.3137 50.2284 20.4858 49.9937C19.4663 49.6882 22.372 50.6743 21.5224 49.9937C20.4572 49.1642 19.4946 48.1968 18.657 47.114C18.0474 46.2941 17.5312 45.3462 17.4505 44.3085C17.3764 43.1772 17.7138 42.0588 18.3936 41.1818C18.6995 40.7909 19.1115 40.5281 19.3792 40.1328C19.7636 39.5668 19.9824 38.9782 20.4858 38.4863C20.9149 38.9693 21.0508 39.6431 21.3015 40.2631Z" fill="black"/>
<path d="M19.0584 43.0759C18.0387 42.2339 17.0976 41.3019 16.2466 40.2913C15.3518 39.2644 15.0755 38.0086 14.6445 36.7009C14.374 35.8778 14.3991 35.3163 14.3875 34.5009C14.3759 33.8644 13.885 31.2317 12.8415 31.499C12.4298 31.6028 12.138 32.8297 11.9525 33.1855C11.4616 34.1297 10.7195 34.9163 10.1726 35.824C9.55148 36.907 8.98707 38.0213 8.48168 39.1624C7.1579 42.0124 6.1897 45.6855 9.57163 47.3894C10.8355 48.0259 12.0491 48.574 13.3246 49.1971C15.8639 50.4394 18.4381 51.6375 20.6682 53.4182C21.3001 53.9221 21.9456 54.6471 22.6606 54.999C24.1062 55.7144 26.201 55.7817 27.3644 54.524C27.8463 53.9633 28.2268 53.3237 28.4891 52.6336C29.3208 50.6204 30.4983 47.3885 28.9269 45.5159C28.6898 45.2113 28.1723 44.925 27.8153 44.7758C27.6611 44.7274 26.9752 45.0778 26.8136 45.0855C26.3821 45.0855 25.9516 45.128 25.5285 45.2124C25.1054 45.328 24.6738 45.4097 24.2376 45.4567C23.4244 45.4619 22.6136 45.367 21.8239 45.174C20.846 44.8778 19.8565 43.7163 19.0584 43.0759Z" fill="#A56A36"/>
<path d="M28.835 48.2351C28.6778 48.8694 28.4763 49.4921 28.2321 50.0985C27.7934 51.2524 27.1363 52.5235 25.9362 53.0466C24.4598 53.6889 22.6992 52.1062 21.588 51.3158C19.7096 49.9697 17.7114 48.7543 15.5025 48.0466C13.6975 47.4697 11.8732 46.7716 10.2634 45.7601C9.86008 45.5304 9.50666 45.2231 9.22373 44.8562C8.79664 44.2485 8.72707 43.4601 8.76958 42.7197C8.91259 40.1735 10.1784 37.8812 11.6201 35.837C12.2578 34.9293 13.2395 34.0389 13.6009 32.9851C14.3101 30.9216 14.0589 28.3697 17.0311 28.8639C18.4805 29.1024 19.9415 29.3639 21.3156 29.8928C22.6896 30.4216 23.6346 30.9562 23.0742 32.5735C22.8709 33.0831 22.6116 33.5687 22.3011 34.0216C21.5491 35.1968 20.9687 36.4724 20.5773 37.8101C20.3068 39.1409 20.0555 40.8351 20.9851 41.9716C21.9146 43.1082 23.364 43.4582 24.7149 43.7505C26.0657 44.0428 27.8649 44.2985 28.6321 45.587C28.7033 45.7088 28.7616 45.8377 28.806 45.9716C29.0271 46.7087 29.0371 47.4926 28.835 48.2351Z" fill="#F9AA3A"/>
<path d="M30.1409 34.8657C30.4134 36.0196 29.5727 37.1946 28.2663 37.5004C26.9599 37.8061 25.6767 37.1158 25.4062 35.9754C25.1356 34.835 25.9744 33.6484 27.2807 33.3427C28.5871 33.0369 29.8703 33.7177 30.1409 34.8657Z" fill="url(#paint4_radial_3789_42085)"/>
<path d="M54.2668 21.0593C54.4774 20.6074 54.6668 20.1458 54.8465 19.6804C55.0529 19.2371 55.1835 18.7627 55.233 18.2766C55.3103 16.5574 53.4068 16.2131 52.1023 15.9035C50.3606 15.4902 48.5609 15.3745 46.7801 15.5612C46.2158 15.6208 45.6342 15.7189 45.1626 16.0324C44.4418 16.5131 44.5693 17.1458 44.4283 17.8593C44.2524 18.74 43.8369 19.6881 43.4929 20.5189C42.5421 22.8266 41.1082 24.9997 39.137 26.5631C33.0893 31.3588 38.4019 36.8838 43.8002 31.9131C44.3278 31.4285 44.9713 31.2093 45.5511 30.7747C46.5598 30.0189 46.9695 28.6035 47.8334 27.5804C48.79 26.4497 50.3457 26.1112 51.397 25.1035C51.9883 24.542 52.4869 23.7862 53.0048 23.1477C53.5074 22.504 53.931 21.8029 54.2668 21.0593Z" fill="#8F5C2E"/>
<path d="M54.9002 20.2899C55.0634 19.703 55.1466 19.097 55.1475 18.488C55.1475 18.1034 55.0741 17.6996 54.7977 17.438C54.6286 17.2944 54.4311 17.1876 54.218 17.1246C52.3517 16.4342 50.3747 16.0875 48.3837 16.1015C46.6193 16.1419 46.511 17.6842 45.91 19.1072C44.9322 21.4149 43.9002 23.7592 42.3252 25.7361C41.5444 26.7368 40.6005 27.6 39.5327 28.2899C38.2205 29.1188 36.7209 28.8842 35.2367 29.2822C34.8927 29.3765 34.5081 29.5265 34.3883 29.8592C34.2917 30.1246 34.4811 30.3419 34.4192 30.6188C34.3142 31.1082 34.2381 31.6032 34.1912 32.1015C34.1912 32.1938 34.1757 32.2572 34.1699 32.3034C34.1699 32.5284 34.1699 32.7515 34.1699 32.9765C34.1773 33.7726 34.238 34.5673 34.3516 35.3553C34.3864 35.5822 34.4269 35.8072 34.4675 36.0342C34.4675 36.0457 34.4675 36.0572 34.4772 36.0688C34.912 37.5149 35.6638 39.6534 37.3296 40.0688C38.2418 40.2976 39.2061 40.0899 40.097 39.7899C43.8074 38.5438 46.828 35.7399 49.0272 32.513C50.4921 30.363 51.6322 28.0169 52.6526 25.6303C53.329 24.038 54.417 22.138 54.9002 20.2899Z" fill="#F9AA3A"/>
<g opacity="0.61">
<g opacity="0.25">
<rect x="27.6924" y="8.48438" width="12.7439" height="11.8786" fill="url(#pattern0)"/>
</g>
<g opacity="0.25">
<rect x="4.75293" y="14.4238" width="14.4431" height="12.727" fill="url(#pattern1)"/>
</g>
</g>
<path d="M29.8587 14.8449C32.2418 14.1375 33.6938 11.9634 33.1019 9.98897C32.51 8.0145 30.0984 6.98734 27.7153 7.69473C25.3322 8.40213 23.8802 10.5762 24.4721 12.5507C25.064 14.5252 27.4756 15.5523 29.8587 14.8449Z" fill="#CBCBCA"/>
<path d="M30.3213 15.0979C32.5124 14.4524 33.7486 12.1137 33.0824 9.87427C32.4162 7.6348 30.0999 6.3426 27.9088 6.98805C25.7177 7.6335 24.4815 9.97218 25.1477 12.2116C25.8138 14.4511 28.1301 15.7433 30.3213 15.0979Z" fill="white"/>
<path d="M25.8277 12.2191C26.3167 13.6941 28.0366 14.4499 29.6696 13.9114C31.3026 13.3729 32.2302 11.7326 31.7413 10.2672C31.2523 8.80179 29.5324 8.0364 27.8994 8.57486C26.2664 9.11332 25.3388 10.746 25.8277 12.2191Z" fill="url(#paint5_radial_3789_42085)"/>
<path d="M26.0225 12.1635C26.496 13.5923 28.1638 14.325 29.7465 13.8019C31.3293 13.2789 32.2279 11.6981 31.7544 10.2692C31.2809 8.84039 29.617 8.10769 28.0304 8.63077C26.4438 9.15385 25.5587 10.7346 26.0225 12.1635Z" fill="url(#paint6_radial_3789_42085)"/>
<path d="M26.0225 12.1635C26.496 13.5923 28.1638 14.325 29.7465 13.8019C31.3293 13.2789 32.2279 11.6981 31.7544 10.2692C31.2809 8.84039 29.617 8.10769 28.0304 8.63077C26.4438 9.15385 25.5587 10.7346 26.0225 12.1635Z" fill="url(#paint7_radial_3789_42085)"/>
<path d="M15.9477 19.8825C18.5282 19.1165 20.1004 16.7621 19.4594 14.6238C18.8184 12.4854 16.2069 11.3729 13.6264 12.1389C11.046 12.9049 9.47374 15.2593 10.1147 17.3977C10.7558 19.536 13.3673 20.6485 15.9477 19.8825Z" fill="#CBCBCA"/>
<path d="M16.3558 19.9547C18.728 19.2559 20.0664 16.7237 19.345 14.2989C18.6237 11.8741 16.1158 10.4748 13.7436 11.1737C11.3713 11.8725 10.033 14.4047 10.7543 16.8295C11.4757 19.2543 13.9835 20.6535 16.3558 19.9547Z" fill="white"/>
<path d="M11.5641 16.6434C12.053 18.1184 13.773 18.8742 15.4059 18.3357C17.0389 17.7973 17.9665 16.1569 17.4776 14.6915C16.9887 13.2261 15.2687 12.4607 13.6357 12.9992C12.0028 13.5376 11.0751 15.1703 11.5641 16.6434Z" fill="url(#paint8_radial_3789_42085)"/>
<path d="M11.7589 16.5878C12.2323 18.0166 13.9001 18.7493 15.4828 18.2262C17.0656 17.7032 17.9642 16.1224 17.4907 14.6936C17.0173 13.2647 15.3534 12.532 13.7668 13.0551C12.1802 13.5782 11.2951 15.1589 11.7589 16.5878Z" fill="url(#paint9_radial_3789_42085)"/>
<path d="M11.7589 16.5878C12.2323 18.0166 13.9001 18.7493 15.4828 18.2262C17.0656 17.7032 17.9642 16.1224 17.4907 14.6936C17.0173 13.2647 15.3534 12.532 13.7668 13.0551C12.1802 13.5782 11.2951 15.1589 11.7589 16.5878Z" fill="url(#paint10_radial_3789_42085)"/>
<path d="M31.5107 18.8446C31.4178 18.6992 31.2921 18.5774 31.1435 18.4889C30.9498 18.2951 30.6879 18.184 30.4132 18.1794C30.1386 18.1747 29.873 18.2768 29.6728 18.4639C29.3907 18.7177 29.1047 18.9677 28.8148 19.21C28.693 19.312 28.5848 19.4216 28.4592 19.5177C28.3336 19.6139 28.1828 19.7216 28.0476 19.8254C27.8311 19.9927 27.6127 20.1562 27.3905 20.3139C26.7582 20.7668 26.095 21.1755 25.4058 21.537C24.7268 21.8963 24.015 22.1906 23.28 22.4158C22.5519 22.6392 21.7991 22.7729 21.0383 22.8139C20.2517 22.8509 19.4638 22.7771 18.698 22.5946C18.4325 22.5259 18.1506 22.5644 17.9135 22.7016C17.6764 22.8389 17.5034 23.0638 17.4322 23.3273C17.2983 23.5518 17.249 23.8162 17.293 24.0735C17.9559 28.285 23.4346 30.1773 27.0349 28.5793C30.4497 27.0639 33.8819 22.51 31.5107 18.8446ZM26.258 26.6158C24.2173 27.5773 21.3069 26.8966 19.9928 25.06C19.9957 25.0159 19.9957 24.9715 19.9928 24.9273V24.9081C23.1312 25.0889 26.1054 23.7927 28.6215 22.0235C29.0274 21.737 29.4255 21.31 29.868 21.1023C29.8863 21.0872 29.9083 21.0771 29.9317 21.073C29.9552 21.0689 29.9793 21.0709 30.0017 21.0788C30.0241 21.0868 30.044 21.1004 30.0596 21.1183C30.0751 21.1363 30.0857 21.1579 30.0903 21.1812C30.3028 21.6658 30.0902 22.3658 29.9202 22.8312C29.6974 23.4058 29.385 23.9419 28.9945 24.4196C28.2628 25.3505 27.3268 26.1023 26.258 26.6177V26.6158Z" fill="#A3141A"/>
<path d="M31.344 19.1229C31.24 18.9727 31.1025 18.8486 30.9423 18.7602C30.782 18.6718 30.6033 18.6215 30.4203 18.6133C29.8714 18.6287 29.483 19.0614 29.0907 19.3825C27.9691 20.3045 26.7571 21.1117 25.473 21.7921C24.8434 22.1261 24.1834 22.3997 23.5018 22.6094C22.8157 22.7867 22.1202 22.926 21.4185 23.0267C20.9786 23.1096 20.5305 23.1419 20.0832 23.1229C19.6561 23.0998 19.2367 22.9556 18.8 22.9306C18.5331 22.8982 18.2624 22.9367 18.0154 23.0421C17.681 23.2114 17.6057 23.571 17.5999 23.9133C17.5805 25.1287 18.655 26.5479 19.5073 27.3248C21.4012 29.0556 24.6845 29.3594 26.9881 28.3344C28.0101 27.8643 28.9263 27.1938 29.682 26.3633C30.0737 25.9391 30.4366 25.4894 30.7681 25.0171C31.1108 24.5874 31.3942 24.1139 31.6107 23.6094C31.7115 23.3652 31.7961 23.1147 31.8639 22.8594C32.1267 21.7671 32.0958 20.3594 31.5141 19.371C31.4638 19.2841 31.407 19.2012 31.344 19.1229ZM26.4141 26.8325L26.1455 26.9306C24.3811 27.5767 22.4061 27.6479 20.8794 26.4094C20.5412 26.1344 19.3797 25.3441 19.5266 24.8094C19.6252 24.4364 20.2068 24.6171 20.4813 24.6017C21.7264 24.5821 22.9625 24.3879 24.1531 24.0248C25.6581 23.5552 27.0726 22.8362 28.337 21.8979C28.6945 21.6306 29.1293 21.3748 29.454 21.0748C29.6376 20.9056 29.8405 20.6229 30.1188 20.6594C30.4531 20.7037 30.5053 21.071 30.5053 21.3479C30.5111 21.6603 30.4747 21.9721 30.3971 22.2748C30.3306 22.6019 30.2207 22.9188 30.0705 23.2171C29.3168 24.8248 28.1476 26.1883 26.4219 26.8325H26.4141Z" fill="#DE020B"/>
<path d="M165.515 38.1776C164.861 37.3759 164.005 35.6094 164.005 34.9831C164.005 34.3316 164.546 33.4798 165.629 32.4275C166.258 31.8262 166.736 32.3524 167.63 31.5256C168.146 32.3524 169.845 32.2271 171.104 33.4798C171.456 33.9057 171.96 34.3191 172.614 34.72C173.269 35.0958 173.873 35.2837 174.427 35.2837C176.768 35.2837 177.938 34.8954 177.938 32.9912C177.938 32.415 177.422 32.7658 176.768 32.3899C176.138 31.9891 175.345 31.7009 174.389 31.5256C173.432 31.3502 172.4 31.0746 171.293 30.6988C170.185 30.2979 169.153 29.8344 168.196 29.3082C167.24 28.7821 166.434 27.9553 165.78 26.8279C165.15 25.6754 165.024 23.4706 165.024 21.8671C165.024 19.6623 165.994 17.1912 167.63 15.5627C169.291 13.9091 171.544 13.0823 174.389 13.0823C175.899 13.0823 177.271 13.2827 178.505 13.6836C179.763 14.0594 180.632 14.4477 181.11 14.8486L182.054 15.5627C182.834 16.2892 183.225 16.9031 183.225 17.4041C183.225 17.9052 183.451 20.6144 182.847 21.4913C181.991 22.744 180.808 22.6187 179.902 22.6187C179.373 22.6187 178.719 22.3682 177.938 21.8671C177.863 21.817 177.712 21.6917 177.485 21.4913C177.284 21.2909 177.095 21.128 176.919 21.0027C176.39 20.677 175.71 20.5142 174.88 20.5142C174.074 20.5142 173.395 20.7146 172.841 21.1155C172.312 21.4913 171.67 21.3159 171.67 22.0174C171.67 22.6939 171.985 23.2451 172.614 23.671C173.269 24.0969 174.829 24.0093 175.786 24.1596C176.743 24.3099 177.787 24.5479 178.92 24.8736C180.053 25.1743 181.098 25.5501 182.054 26.0011C183.011 26.4521 183.804 27.2413 184.433 28.3687C185.087 29.4711 184.66 31.2124 184.66 32.8409C184.66 34.4695 184.332 36.3236 183.678 37.5763C183.023 38.804 182.167 39.7561 181.11 40.4325C179.071 41.7604 176.894 42.4244 174.578 42.4244C173.395 42.4244 172.274 42.2866 171.217 42.011C170.16 41.7103 169.304 41.347 168.649 40.9211C167.315 40.1194 166.384 39.3427 165.855 38.591L165.515 38.1776Z" fill="#76E7C5"/>
<path d="M186.83 47.0092V25.0615C186.83 24.4853 186.843 24.0594 186.868 23.7838C186.918 23.5082 187.031 23.195 187.208 22.8442C187.56 22.1678 188.847 21.341 190.181 21.341C191.515 21.341 192.409 21.5163 192.862 21.8671C193.34 22.1928 193.458 23.1699 193.533 23.8213C194.49 22.5185 196.026 21.4913 198.065 21.4913C200.129 21.4913 202.08 22.4559 203.917 24.3851C205.755 26.3143 206.636 28.9324 206.636 31.488C206.636 34.0435 206.17 36.8496 204.332 38.7788C202.519 40.708 200.581 41.6726 198.517 41.6726C196.453 41.6726 194.729 41.0712 193.798 39.9187V47.5102C193.798 48.0865 193.773 48.5124 193.722 48.788C193.697 49.0636 193.584 49.3768 193.382 49.7275C193.206 50.1034 192.665 49.8278 192.212 49.9781C191.759 50.1284 191.142 50.2036 190.362 50.2036C189.581 50.2036 188.668 50.1284 188.189 49.9781C187.736 49.8278 187.409 49.5772 187.208 49.2265C187.031 48.8757 186.918 48.5625 186.868 48.2869C186.843 48.0113 186.83 47.5854 186.83 47.0092ZM194.591 29.3082C194.012 29.9847 193.722 30.7238 193.722 31.5256C193.722 32.3273 194.012 33.0664 194.591 33.7429C195.195 34.3943 195.95 34.72 196.856 34.72C197.788 34.72 198.568 34.3943 199.197 33.7429C199.852 33.0915 200.179 32.3524 200.179 31.5256C200.179 30.6988 199.877 29.9597 199.273 29.3082C198.669 28.6318 197.876 28.2935 196.894 28.2935C195.937 28.2935 195.17 28.6318 194.591 29.3082Z" fill="#76E7C5"/>
<path d="M228.274 29.3834C228.274 30.9117 228.458 32.5223 227.677 33.2739C226.922 34.0005 226.079 34.3638 225.147 34.3638H216.198C216.198 35.0653 216.077 34.7325 216.908 35.2086C217.739 35.6846 218.569 35.9226 219.4 35.9226C220.86 35.9226 222.006 35.7723 222.836 35.4716L223.252 35.3213C223.856 35.0457 224.359 34.9079 224.762 34.9079C225.568 34.9079 226.26 35.4716 226.839 36.5991C227.166 37.2755 227.554 39.2423 227.554 39.7183C227.554 41.9482 224.874 43.0631 219.512 43.0631C217.649 43.0631 215.987 42.7499 214.527 42.1236C213.092 41.4721 211.972 40.6203 211.167 39.568C209.581 37.5386 208.525 34.3317 208.525 31.8262C208.525 28.6694 209.658 25.3246 211.697 23.4455C213.761 21.5414 216.329 20.5893 219.4 20.5893C222.899 20.5893 225.467 21.817 227.103 24.2723C227.959 25.5751 228.274 27.83 228.274 29.3834Z" fill="#76E7C5"/>
<path d="M249.919 29.3834C249.919 30.9117 249.83 32.5223 249.05 33.2739C248.294 34.0005 247.451 34.3638 246.52 34.3638L237.27 33.8932C237.27 34.5947 237.685 34.7325 238.516 35.2086C239.347 35.6846 240.177 35.9226 241.008 35.9226C242.468 35.9226 243.613 35.7723 244.444 35.4716L244.859 35.3213C245.464 35.0457 246.57 35.218 246.973 35.218C247.778 35.218 248.471 35.7818 249.05 36.9092C249.377 37.5857 249.541 38.1619 249.541 38.638C249.541 40.8678 246.37 43.0631 241.008 43.0631C239.145 43.0631 237.484 42.7499 236.024 42.1236C234.589 41.4721 233.469 40.6203 232.663 39.568C231.077 37.5386 230.171 34.3317 230.171 31.8262C230.171 28.6694 231.605 25.738 233.644 23.8589C235.708 21.9548 238.275 21.0027 241.347 21.0027C244.846 21.0027 247.413 22.2304 249.05 24.6857C249.906 25.9885 249.919 27.83 249.919 29.3834Z" fill="#76E7C5"/>
<path d="M258.613 31.7511C258.613 32.8033 259.381 33.2919 260.086 33.8932C260.791 34.4695 261.533 34.7576 262.314 34.7576C263.119 34.7576 263.862 34.5321 264.542 34.0811C265.246 33.6051 265.813 33.3671 266.241 33.3671C266.996 33.3671 267.915 34.031 268.997 35.3589C269.576 36.0855 269.45 37.0751 269.45 37.6514C269.45 38.6034 268.758 39.8311 267.374 40.6579C265.939 41.6601 264.177 42.1611 262.087 42.1611C259.746 42.1611 257.493 41.3218 255.328 39.6432C254.296 38.8414 252.99 37.7354 252.335 36.4075C251.681 35.0546 251.816 33.2794 251.816 31.6759C251.816 30.0474 251.681 28.8787 252.335 27.5759C252.99 26.248 254.862 24.1778 255.895 23.3761C257.984 21.7225 260.212 20.8957 262.578 20.8957C263.535 20.8957 264.466 21.0335 265.372 21.3091C266.278 21.5596 266.946 21.8102 267.374 22.0607L267.978 22.4365C268.431 22.7372 268.783 22.9752 269.035 23.1506C269.689 23.6517 270.017 24.2279 270.017 24.8793C270.017 25.5057 269.564 27.6226 269.035 28.4244C268.129 29.8024 267.26 30.4913 266.43 30.4913C265.951 30.4913 265.272 30.2157 264.39 29.6646C263.937 29.2386 263.283 29.0257 262.427 29.0257C261.596 29.0257 260.816 29.3263 260.086 29.9276C259.356 30.5289 258.613 30.6737 258.613 31.7511Z" fill="#76E7C5"/>
<path d="M283.11 21.5008C285.627 21.5008 287.716 22.4528 289.378 24.357C291.064 26.2611 291.908 28.5912 291.908 31.3471V38.638C291.908 39.2142 291.883 39.6527 291.832 39.9533C291.807 40.2289 291.694 40.5546 291.492 40.9304C291.165 41.5818 290.196 41.9076 288.585 41.9076C287.049 41.9076 285.375 41.3469 284.998 40.6955C284.796 40.3196 284.671 39.9814 284.62 39.6808C284.595 39.3801 284.583 38.9291 284.583 38.3278L284.331 31.6759C284.331 30.6487 284.35 31.0676 283.771 30.4913C283.192 29.9151 282.594 29.1203 281.687 29.1203C280.806 29.1203 280.026 29.3959 279.346 29.9471C278.667 30.4733 278.692 31.3471 278.692 31.3471V38.638C278.692 39.2142 278.667 39.6527 278.616 39.9533C278.591 40.2289 278.478 40.5546 278.276 40.9304C277.949 41.5818 276.98 41.9076 275.369 41.9076C273.783 41.9076 271.757 41.6069 271.404 40.9304C271.228 40.5546 271.115 40.2289 271.064 39.9533C271.039 39.6777 271.026 39.2393 271.026 38.638V16.1642C271.026 15.5879 271.039 15.162 271.064 14.8864C271.115 14.5858 271.228 14.2601 271.404 13.9093C271.757 13.2328 273.342 11.8789 274.954 11.8789C276.539 11.8789 277.874 12.4752 278.201 13.1516C278.402 13.5275 278.516 13.8657 278.541 14.1663C278.591 14.4419 278.616 14.8679 278.616 15.4441V23.3761C279.875 21.8478 281.423 21.5008 283.11 21.5008Z" fill="#76E7C5"/>
<path fill-rule="evenodd" clip-rule="evenodd" d="M162.982 39.803C162.14 38.7704 161.278 37.3426 161.278 35.6315C161.278 34.4503 161.751 33.4666 162.183 32.7855C162.636 32.0714 163.231 31.3988 163.873 30.7738L163.883 30.7641L163.893 30.7545C164.213 30.4479 164.564 30.1649 164.945 29.9185C164.242 29.2429 163.646 28.4572 163.146 27.5953L163.125 27.5591L163.105 27.5223C162.168 25.803 161.77 23.8706 161.77 21.8458C161.77 18.7428 162.958 16.0168 165.168 13.813C167.557 11.4314 170.698 10.3881 174.205 10.3881C175.986 10.3881 177.689 10.6231 179.283 11.1367C180.558 11.5201 181.923 12.0395 182.925 12.8493L183.951 13.6266L184.071 13.7387C184.578 14.2113 185.078 14.7562 185.47 15.3739C185.853 15.9765 186.262 16.8545 186.262 17.9285L186.262 17.9467C186.262 18.2156 186.262 18.8662 186.161 19.6077C187.406 18.7722 188.914 18.5993 189.998 18.5993C190.788 18.5993 191.57 18.6497 192.292 18.7917C192.802 18.8919 193.431 19.0656 194.047 19.4037C195.264 18.872 196.615 18.637 198.008 18.637C201.196 18.637 203.939 20.1626 206.198 22.5374C206.675 23.039 207.107 23.5616 207.493 24.1043C208.024 23.3159 208.655 22.5797 209.389 21.9021C212.105 19.3919 215.479 18.185 219.282 18.185C223.633 18.185 227.32 19.78 229.669 23.3104L229.675 23.3192L229.681 23.328C229.687 23.3372 229.693 23.3465 229.699 23.3557C230.102 22.8457 230.551 22.3605 231.048 21.9021C233.764 19.3919 237.138 18.185 240.941 18.185C245.292 18.185 248.979 19.78 251.328 23.3104L251.334 23.3192L251.339 23.328C251.369 23.3734 251.399 23.419 251.428 23.4647C251.993 22.7528 252.634 22.11 253.355 21.5472C255.935 19.5051 258.851 18.3733 262.033 18.3733C263.291 18.3733 264.526 18.5535 265.727 18.9151C266.696 19.1852 267.674 19.5221 268.461 19.9834L268.479 19.9943V15.8192C268.479 15.2249 268.491 14.6768 268.53 14.2479L268.541 14.1287L268.561 14.0107C268.677 13.3181 268.916 12.6835 269.197 12.1233L269.208 12.1022L269.219 12.0813C269.893 10.7845 271.037 10.1043 272.023 9.764C272.986 9.43194 274.031 9.3335 275.02 9.3335C275.998 9.3335 277.042 9.43193 278.004 9.7726C278.98 10.1181 280.104 10.8066 280.755 12.0967C281.054 12.6645 281.328 13.3599 281.421 14.1471C281.505 14.6873 281.524 15.2949 281.524 15.8569V18.7586C281.915 18.7032 282.316 18.6746 282.728 18.6746C286.181 18.6746 289.152 20.0332 291.42 22.632C293.666 25.1769 294.748 28.2842 294.748 31.7519V38.3811C294.748 38.9708 294.726 39.5808 294.645 40.1226C294.549 40.9222 294.255 41.6208 293.969 42.1596C293.292 43.4725 292.124 44.1329 291.171 44.4537C290.221 44.7735 289.185 44.8669 288.207 44.8669C287.249 44.8669 286.236 44.7701 285.296 44.4496C284.334 44.1213 283.243 43.481 282.55 42.2833L282.523 42.237L282.498 42.1898C282.192 41.6183 281.911 40.9413 281.785 40.1897L281.763 40.0598L281.752 39.9285C281.716 39.4893 281.704 38.9285 281.704 38.3058V38.1842C281.704 38.1631 281.703 38.1433 281.703 38.1247C281.636 38.1369 281.587 38.1633 281.524 38.2128V38.3811C281.524 38.9707 281.502 39.5806 281.421 40.1223C281.325 40.9221 281.031 41.6207 280.745 42.1595C280.068 43.4725 278.9 44.1329 277.947 44.4537C276.997 44.7735 275.961 44.8669 274.983 44.8669C274.002 44.8669 272.962 44.7677 272.002 44.4322C271.186 44.1471 270.276 43.6312 269.607 42.7378C269.454 42.8423 269.3 42.9406 269.149 43.033C267.096 44.4374 264.69 45.0552 262.108 45.0552C258.932 45.0552 256 43.8974 253.37 41.8549L253.367 41.8531C252.839 41.4419 252.353 40.9877 251.909 40.495C251.71 41.1249 251.395 41.7217 250.961 42.2642C250.19 43.227 249.179 43.8538 248.178 44.2708C246.24 45.0781 243.712 45.3565 240.903 45.3565C238.676 45.3565 236.569 44.9807 234.643 44.1532L234.612 44.1399L234.582 44.1259C232.832 43.3302 231.313 42.2356 230.149 40.7864C229.95 41.3092 229.669 41.8061 229.302 42.2642C228.531 43.227 227.52 43.8538 226.519 44.2708C224.581 45.0781 222.053 45.3565 219.244 45.3565C217.017 45.3565 214.91 44.9807 212.984 44.1532L212.953 44.1399L212.923 44.1259C211.1 43.2972 209.528 42.1442 208.347 40.604C207.97 40.1198 207.627 39.6223 207.318 39.1121C206.98 39.5664 206.609 40.0063 206.206 40.4311C203.969 42.8129 201.235 44.3396 198.046 44.3396C197.618 44.3396 197.19 44.3197 196.766 44.277V47.0066C196.766 47.5739 196.747 48.1876 196.661 48.7314C196.563 49.5118 196.278 50.1881 195.982 50.7222C195.366 51.9375 194.322 52.6936 193.206 53.0643C192.284 53.3709 191.275 53.4547 190.338 53.4547C189.39 53.4547 188.397 53.3681 187.482 53.08L187.457 53.0723L187.433 53.0643C186.37 52.711 185.337 52.015 184.675 50.8596L184.631 50.7822L184.591 50.7026C184.328 50.1787 184.085 49.5678 183.963 48.8994L183.937 48.7584L183.924 48.6157C183.885 48.1868 183.873 47.6387 183.873 47.0443V41.9628C183.545 42.2388 183.198 42.4953 182.831 42.731C180.299 44.3801 177.517 45.2435 174.545 45.2435C173.109 45.2435 171.713 45.0758 170.368 44.7247L170.333 44.7157L170.299 44.7059C169.068 44.3552 167.905 43.8892 166.906 43.2481C165.477 42.3838 164.159 41.3715 163.263 40.1461L162.982 39.803ZM165.817 38.1928C166.346 38.9461 167.278 39.7246 168.613 40.5281C169.268 40.955 170.124 41.3191 171.182 41.6204C172.24 41.8966 173.361 42.0347 174.545 42.0347C176.862 42.0347 179.041 41.3693 181.081 40.0384C182.139 39.3604 182.996 38.4062 183.651 37.1758C183.729 37.0246 183.804 36.8706 183.873 36.7139C184.38 35.5697 184.633 34.2798 184.633 32.8442C184.633 31.4087 184.38 30.1771 183.873 29.1494C183.804 29.0087 183.729 28.8718 183.651 28.7387C183.021 27.6087 182.227 26.8177 181.27 26.3657C180.313 25.9137 179.268 25.5371 178.134 25.2357C177.001 24.9093 175.955 24.6707 174.998 24.5201C174.041 24.3694 173.235 24.0806 172.58 23.6538C171.95 23.2269 171.635 22.6744 171.635 21.9965C171.635 21.2934 171.9 20.7535 172.429 20.3768C172.983 19.9751 173.663 19.7742 174.469 19.7742C175.3 19.7742 175.981 19.9374 176.51 20.2638C176.686 20.3894 176.875 20.5526 177.076 20.7535C177.303 20.9544 177.454 21.0799 177.53 21.1301C178.311 21.6324 178.965 21.8835 179.494 21.8835C179.568 21.8835 179.644 21.8843 179.722 21.8851C180.592 21.8948 181.655 21.9065 182.441 20.7535C183.046 19.8746 183.046 18.4308 183.046 17.9285C183.046 17.4263 182.656 16.8111 181.875 16.0829L180.93 15.3673C180.452 14.9655 179.583 14.5763 178.323 14.1996C177.089 13.7978 175.716 13.597 174.205 13.597C171.358 13.597 169.104 14.4256 167.442 16.0829C165.804 17.7151 164.986 19.6361 164.986 21.8458C164.986 23.4529 165.3 24.834 165.93 25.989C166.585 27.119 167.391 27.9477 168.348 28.475C169.306 29.0023 170.338 29.4669 171.447 29.8686C172.555 30.2453 173.588 30.5215 174.545 30.6973C175.502 30.8731 176.295 31.1618 176.925 31.5636C177.58 31.9403 177.908 32.4174 177.908 32.9949C177.908 34.9033 176.736 35.8575 174.394 35.8575C173.84 35.8575 173.235 35.6692 172.58 35.2925C171.925 34.8908 171.421 34.4764 171.069 34.0496C169.809 32.794 168.827 32.1663 168.122 32.1663C167.416 32.1663 166.749 32.4676 166.119 33.0702C165.036 34.1249 164.494 34.9786 164.494 35.6315C164.494 36.2593 164.822 36.9749 165.477 37.7785L165.817 38.1928ZM187.089 47.0443C187.089 47.6218 187.102 48.0487 187.127 48.3249C187.177 48.6012 187.291 48.915 187.467 49.2666C187.668 49.6181 187.996 49.8692 188.449 50.0199C188.928 50.1706 189.558 50.2459 190.338 50.2459C191.119 50.2459 191.736 50.1706 192.19 50.0199C192.643 49.8692 192.958 49.6056 193.134 49.2289C193.336 48.8774 193.449 48.5635 193.474 48.2873C193.525 48.0111 193.55 47.5842 193.55 47.0066V39.3981C194.277 40.2993 195.349 40.8489 196.766 41.047C197.165 41.1028 197.592 41.1307 198.046 41.1307C200.112 41.1307 202.051 40.164 203.865 38.2305C204.679 37.3745 205.313 36.4569 205.766 35.4779C206.292 34.3436 206.576 33.1267 206.618 31.8273C206.621 31.7149 206.623 31.6019 206.623 31.4883C206.623 30.1291 206.364 28.8584 205.846 27.676C205.388 26.6302 204.728 25.6536 203.865 24.7461C202.026 22.8126 200.074 21.8458 198.008 21.8458C197.411 21.8458 196.86 21.9018 196.355 22.0139C195.137 22.2843 194.189 22.8812 193.512 23.8044C193.437 23.1515 193.16 22.6619 192.681 22.3355C192.347 22.0768 191.775 21.9133 190.965 21.845C190.673 21.8204 190.351 21.8081 189.998 21.8081C188.663 21.8081 187.82 22.1471 187.467 22.8251C187.291 23.1767 187.177 23.4905 187.127 23.7668C187.102 24.043 187.089 24.4699 187.089 25.0474V47.0443ZM199.18 33.7482C198.55 34.4011 197.769 34.7275 196.837 34.7275C195.93 34.7275 195.175 34.4011 194.57 33.7482C193.991 33.0702 193.701 32.3295 193.701 31.5259C193.701 30.7224 193.991 29.9816 194.57 29.3036C195.15 28.6257 195.918 28.2867 196.875 28.2867C197.857 28.2867 198.651 28.6257 199.255 29.3036C199.86 29.9565 200.162 30.6973 200.162 31.5259C200.162 32.3546 199.835 33.0953 199.18 33.7482ZM209.175 35.6007C209.571 36.6687 210.144 37.6834 210.894 38.6448C211.7 39.6994 212.821 40.5532 214.256 41.2061C215.717 41.8338 217.38 42.1477 219.244 42.1477C224.609 42.1477 227.292 41.0303 227.292 38.7955C227.292 38.3184 227.128 37.7408 226.8 37.0628C226.749 36.9626 226.697 36.8669 226.644 36.7755C226.097 35.8371 225.457 35.3679 224.722 35.3679C224.674 35.3679 224.623 35.3699 224.571 35.374C224.196 35.4034 223.742 35.5395 223.211 35.7822L222.795 35.9328C221.964 36.2342 220.818 36.3848 219.357 36.3848C218.526 36.3848 217.695 36.1463 216.863 35.6692C216.032 35.1921 215.617 34.602 215.617 33.8989H224.571C224.622 33.8989 224.672 33.8978 224.722 33.8957C225.551 33.8601 226.309 33.5306 226.995 32.907C227.031 32.8743 227.067 32.8409 227.103 32.8066C227.11 32.7991 227.118 32.7916 227.126 32.7841C227.4 32.5141 227.625 32.1952 227.801 31.8273C228.116 31.1683 228.274 30.3522 228.274 29.379C228.274 28.4487 228.121 27.5632 227.815 26.7226C227.609 26.1564 227.334 25.6106 226.989 25.0851C225.352 22.6242 222.783 21.3938 219.282 21.3938C216.209 21.3938 213.639 22.348 211.574 24.2564C210.538 25.2125 209.765 26.3336 209.255 27.6197C208.797 28.7759 208.551 30.0654 208.517 31.4883C208.515 31.6004 208.513 31.7134 208.513 31.8273C208.513 33.1514 208.734 34.4093 209.175 35.6007ZM220.302 30.4713C221.259 30.4713 221.738 30.0695 221.738 29.266C221.738 28.6884 221.511 28.2239 221.057 27.8723C220.852 27.7036 220.6 27.5754 220.302 27.4877C220.156 27.4448 219.999 27.4116 219.831 27.388C219.626 27.3593 219.406 27.345 219.168 27.345C218.362 27.345 217.556 27.684 216.75 28.362C215.944 29.0149 215.541 29.718 215.541 30.4713H220.302ZM230.354 33.8535C230.671 35.5756 231.404 37.1727 232.553 38.6448C233.359 39.6994 234.48 40.5532 235.915 41.2061C237.376 41.8338 239.039 42.1477 240.903 42.1477C246.268 42.1477 248.951 41.0303 248.951 38.7955C248.951 38.3184 248.787 37.7408 248.459 37.0628C248.408 36.9626 248.356 36.8669 248.303 36.7755C247.756 35.8371 247.116 35.3679 246.381 35.3679C246.332 35.3679 246.282 35.3699 246.23 35.374C245.855 35.4034 245.401 35.5395 244.87 35.7822L244.454 35.9328C243.623 36.2342 242.477 36.3848 241.016 36.3848C240.185 36.3848 239.354 36.1463 238.522 35.6692C237.691 35.1921 237.276 34.602 237.276 33.8989H246.23C246.281 33.8989 246.331 33.8978 246.381 33.8957C247.215 33.8599 247.976 33.5268 248.666 32.8965C248.698 32.8671 248.73 32.8372 248.762 32.8066C248.769 32.7991 248.777 32.7916 248.785 32.7841C249.096 32.4779 249.344 32.1087 249.528 31.6766C249.798 31.0452 249.933 30.2793 249.933 29.379C249.933 28.4788 249.79 27.6206 249.503 26.8043C249.295 26.2089 249.01 25.6358 248.648 25.0851C247.011 22.6242 244.442 21.3938 240.941 21.3938C237.868 21.3938 235.298 22.348 233.233 24.2564C232.387 25.0374 231.716 25.9286 231.221 26.9298C230.848 27.6838 230.574 28.5002 230.4 29.379C230.248 30.1473 230.172 30.9634 230.172 31.8273C230.172 32.5209 230.233 33.1963 230.354 33.8535ZM241.961 30.4713C242.918 30.4713 243.396 30.0695 243.396 29.266C243.396 28.6884 243.17 28.2239 242.716 27.8723C242.511 27.7036 242.259 27.5754 241.961 27.4877C241.815 27.4448 241.658 27.4116 241.49 27.388C241.285 27.3593 241.065 27.345 240.827 27.345C240.021 27.345 239.215 27.684 238.409 28.362C237.603 29.0149 237.2 29.718 237.2 30.4713H241.961ZM252.814 27.2697C252.482 27.9309 252.234 28.634 252.071 29.379C251.911 30.1051 251.831 30.871 251.831 31.6766C251.831 32.4148 251.9 33.1265 252.039 33.8117C252.201 34.6182 252.46 35.388 252.814 36.1212C253.469 37.452 254.312 38.5192 255.345 39.3228C257.511 41.0052 259.766 41.8464 262.108 41.8464C264.199 41.8464 265.962 41.3442 267.398 40.3398C267.835 40.0783 268.203 39.8107 268.502 39.5368C268.923 39.1514 269.208 38.7536 269.356 38.3435C269.436 38.1211 269.476 37.8951 269.476 37.6655C269.476 37.0879 269.186 36.4351 268.607 35.7069C268.564 35.6543 268.522 35.6027 268.479 35.5522C267.452 34.3244 266.575 33.7106 265.849 33.7106C265.421 33.7106 264.854 33.9491 264.149 34.4262C263.469 34.8782 262.725 35.1042 261.919 35.1042C261.139 35.1042 260.395 34.8154 259.69 34.2379C258.985 33.6352 258.632 32.8066 258.632 31.7519C258.632 30.6722 258.998 29.831 259.728 29.2283C260.458 28.6257 261.239 28.3243 262.071 28.3243C262.927 28.3243 263.582 28.5378 264.035 28.9647C264.917 29.5171 265.597 29.7933 266.076 29.7933C266.845 29.7933 267.646 29.2024 268.479 28.0205C268.547 27.9248 268.615 27.8252 268.683 27.7217C269.212 26.9181 269.476 26.2025 269.476 25.5747C269.476 24.9218 269.149 24.3443 268.494 23.8421C268.489 23.8388 268.484 23.8355 268.479 23.8321C268.229 23.6573 267.881 23.4221 267.436 23.1264L266.831 22.7498C266.403 22.4987 265.736 22.2476 264.829 21.9965C263.922 21.7202 262.99 21.5821 262.033 21.5821C259.665 21.5821 257.436 22.4108 255.345 24.0681C254.363 24.8321 253.552 25.8346 252.912 27.0754C252.878 27.1396 252.846 27.2043 252.814 27.2697ZM271.696 38.3435C271.696 38.9461 271.708 39.3856 271.733 39.6618C271.771 39.8665 271.843 40.0988 271.949 40.3587C271.986 40.4494 272.028 40.5436 272.073 40.6411C272.426 41.3191 273.396 41.6581 274.983 41.6581C276.595 41.6581 277.565 41.3316 277.892 40.6788C278.093 40.3021 278.207 39.9757 278.232 39.6994C278.282 39.3981 278.308 38.9587 278.308 38.3811V31.0739C278.408 30.396 278.799 29.7933 279.479 29.266C280.159 28.7135 280.94 28.4373 281.821 28.4373C282.728 28.4373 283.471 28.7261 284.051 29.3036C284.63 29.8812 284.92 30.6847 284.92 31.7143V38.3058C284.92 38.9085 284.932 39.3604 284.957 39.6618C285.008 39.9631 285.134 40.3021 285.335 40.6788C285.713 41.3316 286.67 41.6581 288.207 41.6581C289.819 41.6581 290.789 41.3316 291.116 40.6788C291.318 40.3021 291.431 39.9757 291.456 39.6994C291.507 39.3981 291.532 38.9587 291.532 38.3811V31.7519C291.532 28.9898 290.688 26.6545 289 24.7461C287.338 22.8377 285.247 21.8835 282.728 21.8835C282.314 21.8835 281.912 21.9296 281.524 22.022C280.33 22.3058 279.258 23.0255 278.308 24.1811V15.8569C278.308 15.2794 278.282 14.8525 278.232 14.5763C278.207 14.2749 278.093 13.936 277.892 13.5593C277.565 12.8813 276.607 12.5423 275.02 12.5423C273.408 12.5423 272.426 12.8813 272.073 13.5593C271.897 13.9108 271.784 14.2373 271.733 14.5386C271.708 14.8148 271.696 15.2417 271.696 15.8192V38.3435Z" fill="#194E71"/>
<path fill-rule="evenodd" clip-rule="evenodd" d="M87.0397 23.7112H78.1308C77.3693 23.7112 76.7602 25.0181 76.3033 25.243C75.9987 25.3928 75.783 25.6677 75.6561 26.0674C75.5546 26.4671 75.5038 27.0042 75.5038 27.6788C75.5038 28.3283 75.5546 28.853 75.6561 29.2527C75.7576 29.6274 75.9734 29.9147 76.3033 30.1146C76.6333 30.3145 77.344 30.97 78.1308 30.97L82.0522 30.4144V34.4991C80.9355 34.9488 79.6791 35.1736 78.2831 35.1736C76.3541 35.1736 74.6281 34.4241 73.1052 32.9252C71.5823 31.4012 70.8209 29.565 70.8209 27.4164C70.8209 25.2429 71.5696 23.4942 73.0672 22.1701C74.5647 20.821 76.2779 20.1465 78.2069 20.1465C79.6791 20.1465 80.9481 20.4962 82.0142 21.1957C83.0802 21.8703 83.8543 22.2075 84.3366 22.2075C85.1488 22.2075 86.0498 21.5455 87.0397 20.2214C87.6235 19.422 87.9154 18.7224 87.9154 18.1229C87.9154 17.4983 87.725 16.6212 87.0397 16.1216C84.3747 14.1729 81.2781 13.1519 78.2831 13.1519C74.4251 13.1519 70.8259 14.7211 67.9831 17.3943C65.1404 20.0425 63.2959 23.4442 63.2959 27.4164C63.2959 31.3887 65.0866 35.4044 67.8785 38.2275C70.6705 41.0255 73.9574 42.4246 77.7393 42.4246C82.0034 42.4246 86.011 40.9446 88.143 38.7711C88.8537 38.0466 89.2091 37.2846 89.2091 36.4852V28.8488C89.2091 27.9245 89.5898 25.243 88.7911 25.243C88.4865 24.5934 88.4103 23.7612 87.0397 23.7112ZM94.4207 23.7112C92.2887 25.6599 91.2607 28.6156 91.2607 31.6136C91.2607 33.6122 91.7937 36.029 92.8598 37.6279C93.9512 39.2018 95.2837 40.401 96.8574 41.2254C98.431 42.0249 100.055 42.4246 101.731 42.4246C103.406 42.4246 105.018 42.0498 106.566 41.3004C108.139 40.5259 109.472 39.3392 110.563 37.7403C111.655 36.1164 112.201 33.6497 112.201 31.5761C112.201 28.5781 111.109 25.6349 109.002 23.7112C106.896 21.7625 104.472 20.7882 101.731 20.7882C98.9894 20.7882 96.5528 21.7625 94.4207 23.7112ZM129.204 24.9057H135.905C137.275 24.9556 138.113 25.3054 138.418 25.955C138.671 26.4296 138.798 27.1292 138.798 28.0535V36.2978C138.798 37.0973 138.443 37.8592 137.732 38.5837C135.6 40.7573 132.554 42.8488 128.29 42.8488C124.508 42.8488 120.888 41.3818 118.096 38.5837C115.304 35.7607 113.423 31.2846 113.423 27.3123C113.423 23.34 115.253 20.0425 118.096 17.3943C120.939 14.7211 124.432 13.1519 128.29 13.1519C131.285 13.1519 134.122 14.1729 136.787 16.1216C137.473 16.6212 138.062 17.194 138.062 17.8185C138.062 18.4181 138.646 19.5645 138.062 20.364C137.072 21.6881 135.275 22.9469 134.463 22.9469C133.981 22.9469 133.207 22.6096 132.141 21.9351C131.075 21.2356 129.686 20.7882 128.214 20.7882C126.285 20.7882 124.691 21.5604 123.194 22.9094C121.696 24.2335 121.07 25.4026 121.07 27.5761C121.07 29.7246 121.671 31.1431 123.194 32.667C124.716 34.166 126.285 34.7882 128.214 34.7882C129.61 34.7882 130.573 34.8137 131.69 34.364V30.5458H128.716C127.929 30.5458 127.347 30.3214 127.017 30.1216C126.687 29.9217 126.831 29.6274 126.729 29.2527C126.628 28.853 126.577 28.3283 126.577 27.6788C126.577 27.0042 126.628 26.4671 126.729 26.0674C126.856 25.6677 127.072 25.3928 127.377 25.243C127.833 25.0181 128.443 24.9057 129.204 24.9057ZM144.428 23.7112C142.296 25.6599 141.268 28.6156 141.268 31.6136C141.268 33.6122 141.801 36.029 142.867 37.6279C143.958 39.2018 145.291 40.401 146.865 41.2254C148.438 42.0249 150.063 42.4246 151.738 42.4246C153.413 42.4246 155.025 42.0498 156.573 41.3004C158.147 40.5259 159.479 39.3392 160.571 37.7403C161.662 36.1164 162.208 33.6497 162.208 31.5761C162.208 28.5781 161.116 25.6349 159.01 23.7112C156.903 21.7625 154.479 20.7882 151.738 20.7882C148.997 20.7882 146.56 21.7625 144.428 23.7112Z" fill="white"/>
<path fill-rule="evenodd" clip-rule="evenodd" d="M86.35 24.9232C86.2005 24.9084 86.0434 24.8981 85.8786 24.892H79.1731C78.4111 24.892 77.8015 25.005 77.3443 25.2309C77.0395 25.3815 76.8236 25.6577 76.6966 26.0593C76.595 26.461 76.5442 27.0007 76.5442 27.6785C76.5442 28.3312 76.595 28.8583 76.6966 29.26C76.7982 29.6365 77.0141 29.9252 77.3443 30.126C77.6745 30.3268 78.2333 30.4273 79.0207 30.4273H82.0305V34.5316C80.913 34.9835 79.6557 35.2094 78.2587 35.2094C76.3283 35.2094 74.6011 34.4563 73.0772 32.9501C71.5532 31.4188 70.7912 29.5738 70.7912 27.4149C70.7912 25.2309 71.5405 23.4737 73.0391 22.1432C74.5376 20.7877 76.2521 20.1099 78.1825 20.1099C79.6557 20.1099 80.9257 20.4613 81.9924 21.1642C82.3326 21.3803 82.6431 21.562 82.9238 21.7092C83.5236 22.0237 83.9878 22.1809 84.3165 22.1809C84.7117 22.1809 85.1278 22.0237 85.565 21.7092C86.027 21.3769 86.5126 20.8688 87.0216 20.1852C87.6058 19.3819 87.8979 18.679 87.8979 18.0765C87.8979 17.449 87.555 16.8841 86.8692 16.3821C84.2022 14.424 81.3702 13.445 78.373 13.445C74.5122 13.445 71.1595 14.788 68.3147 17.4741C65.47 20.135 64.0476 23.4612 64.0476 27.4525C64.0476 31.4439 65.4446 34.858 68.2385 37.6946C71.0325 40.5061 74.3217 41.9119 78.1063 41.9119C82.3734 41.9119 85.5738 40.8199 87.7074 38.636C88.4186 37.908 88.7742 37.1423 88.7742 36.339V28.055C88.7742 27.738 88.7594 27.4472 88.7298 27.1828C88.6726 26.6727 88.5605 26.2605 88.3932 25.9464C88.125 25.3721 87.4439 25.0311 86.35 24.9232ZM90.6575 23.5817C90.2573 23.1128 89.7859 22.7603 89.288 22.4955C89.4 22.356 89.5091 22.2145 89.6154 22.0716L89.6261 22.0573L89.6366 22.0428C90.3841 21.015 91.1183 19.6513 91.1183 18.0765C91.1183 16.117 89.9874 14.7047 88.7882 13.8261C85.6297 11.5075 82.1363 10.2622 78.373 10.2622C73.6686 10.2622 69.5257 11.9312 66.0955 15.1676C62.5896 18.4496 60.8271 22.6198 60.8271 27.4525C60.8271 32.2656 62.5463 36.4784 65.9309 39.9147L65.9359 39.9198L65.9409 39.9248C69.3042 43.3093 73.4073 45.0947 78.1063 45.0947C82.8991 45.0947 87.0784 43.8621 90.0241 40.8467C90.3399 40.5235 90.6328 40.1723 90.8909 39.7942C92.1235 41.3251 93.6033 42.569 95.3331 43.4789L95.3511 43.4884L95.3692 43.4976C97.3738 44.5202 99.5033 45.0571 101.723 45.0571C103.907 45.0571 106.005 44.5621 107.983 43.6007L107.992 43.5961L108.002 43.5914C110.129 42.5405 111.868 40.9532 113.235 38.9425L113.242 38.933L113.248 38.9235C113.536 38.4925 113.796 38.0502 114.026 37.5975C114.598 38.4045 115.248 39.1775 115.974 39.9147L115.979 39.9198L115.984 39.9248C119.347 43.3093 123.45 45.0947 128.149 45.0947C132.942 45.0947 137.121 43.8621 140.067 40.8467C140.383 40.5235 140.676 40.1723 140.934 39.7942C142.166 41.3251 143.646 42.569 145.376 43.4789L145.394 43.4884L145.412 43.4976C147.417 44.5202 149.546 45.0571 151.766 45.0571C153.95 45.0571 156.048 44.5621 158.026 43.6007L158.035 43.5961L158.045 43.5914C160.171 42.5405 161.911 40.9532 163.278 38.9425L163.284 38.933L163.291 38.9235C164.068 37.7629 164.042 36.5208 164.4 35.2121C164.717 34.0548 165.464 32.8455 165.464 31.5946C165.464 27.76 164.082 24.4244 161.279 21.8508C158.611 19.3756 155.411 18.0567 151.804 18.0567C148.195 18.0567 144.987 19.3764 142.297 21.8442C141.702 22.3906 141.17 22.9706 140.7 23.5817C140.3 23.1128 139.829 22.7603 139.331 22.4955C139.443 22.356 139.552 22.2145 139.658 22.0716L139.669 22.0573L139.679 22.0428C140.427 21.015 141.161 19.6513 141.161 18.0765C141.161 16.117 140.03 14.7048 138.831 13.8262C135.673 11.5076 132.179 10.2622 128.416 10.2622C123.711 10.2622 119.568 11.9312 116.138 15.1678C113.967 17.1999 112.465 19.5725 111.636 22.232C111.506 22.1031 111.373 21.9759 111.236 21.8506C108.568 19.3755 105.368 18.0567 101.761 18.0567C98.1519 18.0567 94.9437 19.3764 92.2546 21.8442C91.6592 22.3906 91.1269 22.9706 90.6575 23.5817ZM91.9881 27.646C91.9328 27.7808 91.8806 27.9172 91.8315 28.055C91.4409 29.1509 91.2456 30.3433 91.2456 31.6322C91.2456 33.0062 91.4952 34.2862 91.9946 35.4721C92.2251 36.0196 92.5088 36.5471 92.8457 37.0545C93.9379 38.636 95.2714 39.8409 96.8462 40.6693C98.421 41.4726 100.047 41.8743 101.723 41.8743C103.399 41.8743 105.012 41.4977 106.562 40.7446C108.136 39.9664 109.47 38.774 110.562 37.1674C111.258 36.1277 111.732 34.9961 111.985 33.7729C112.128 33.0765 112.2 32.3504 112.2 31.5946C112.2 30.0769 111.933 28.6962 111.398 27.4525C111.25 27.1105 111.083 26.7787 110.895 26.4574C110.411 25.6281 109.792 24.8678 109.038 24.1766C106.93 22.2186 104.504 21.2395 101.761 21.2395C99.0179 21.2395 96.5795 22.2186 94.4459 24.1766C93.3401 25.1915 92.5208 26.3479 91.9881 27.646ZM114.176 25.797C114.119 26.3355 114.09 26.8873 114.09 27.4525C114.09 28.9102 114.277 30.2909 114.649 31.5946C114.827 32.2147 115.046 32.8174 115.308 33.4027C116.002 34.9561 116.993 36.3867 118.281 37.6946C121.075 40.5061 124.365 41.9119 128.149 41.9119C132.416 41.9119 135.617 40.8199 137.75 38.636C138.461 37.908 138.817 37.1423 138.817 36.339V28.055C138.817 27.738 138.802 27.4472 138.773 27.1828C138.715 26.6727 138.603 26.2605 138.436 25.9464C138.168 25.3721 137.487 25.0311 136.393 24.9232C136.243 24.9084 136.086 24.8981 135.921 24.892H129.216C128.454 24.892 127.844 25.005 127.387 25.2309C127.082 25.3815 126.866 25.6577 126.739 26.0593C126.638 26.461 126.587 27.0007 126.587 27.6785C126.587 28.3312 126.638 28.8583 126.739 29.26C126.841 29.6365 127.057 29.9252 127.387 30.126C127.717 30.3268 128.276 30.4273 129.063 30.4273H132.073V34.5316C130.956 34.9835 129.698 35.2094 128.302 35.2094C126.371 35.2094 124.644 34.4563 123.12 32.9501C121.596 31.4188 120.834 29.5738 120.834 27.4149C120.834 25.2309 121.583 23.4737 123.082 22.1432C124.58 20.7877 126.295 20.1099 128.225 20.1099C129.698 20.1099 130.968 20.4613 132.035 21.1642C132.375 21.3803 132.686 21.562 132.967 21.7092C133.566 22.0237 134.031 22.1809 134.359 22.1809C134.754 22.1809 135.171 22.0237 135.608 21.7092C136.07 21.3769 136.555 20.8688 137.064 20.1852C137.649 19.3819 137.941 18.679 137.941 18.0765C137.941 17.449 137.598 16.8841 136.912 16.3821C134.245 14.424 131.413 13.445 128.416 13.445C124.555 13.445 121.202 14.788 118.358 17.4741C115.916 19.7582 114.522 22.5325 114.176 25.797ZM142.031 27.646C141.976 27.7808 141.923 27.9172 141.874 28.055C141.484 29.1509 141.288 30.3433 141.288 31.6322C141.288 33.0062 141.538 34.2862 142.037 35.4721C142.268 36.0196 142.552 36.5471 142.889 37.0545C143.981 38.636 145.314 39.8409 146.889 40.6693C148.464 41.4726 150.089 41.8743 151.766 41.8743C153.442 41.8743 155.055 41.4977 156.604 40.7446C158.179 39.9664 159.513 38.774 160.605 37.1674C161.697 35.5357 162.243 33.6781 162.243 31.5946C162.243 28.5822 161.189 26.1095 159.081 24.1766C156.973 22.2186 154.547 21.2395 151.804 21.2395C149.061 21.2395 146.622 22.2186 144.489 24.1766C143.383 25.1915 142.564 26.3479 142.031 27.646ZM102.041 35.6779C104.379 35.6779 106.275 33.8048 106.275 31.4941C106.275 29.1834 104.379 27.3102 102.041 27.3102C99.7034 27.3102 97.8081 29.1834 97.8081 31.4941C97.8081 33.8048 99.7034 35.6779 102.041 35.6779ZM151.994 35.6779C154.332 35.6779 156.227 33.8048 156.227 31.4941C156.227 29.1834 154.332 27.3103 151.994 27.3103C149.656 27.3103 147.761 29.1834 147.761 31.4941C147.761 33.8048 149.656 35.6779 151.994 35.6779Z" fill="#194E71"/>
<defs>
<pattern id="pattern0" patternContentUnits="objectBoundingBox" width="1" height="1">
<use xlink:href="#image0_3789_42085" transform="translate(-0.440885 -0.407785) scale(0.0151643 0.0161895)"/>
</pattern>
<pattern id="pattern1" patternContentUnits="objectBoundingBox" width="1" height="1">
<use xlink:href="#image1_3789_42085" transform="translate(-0.352941 -0.378906) scale(0.0133803 0.0151102)"/>
</pattern>
<linearGradient id="paint0_linear_3789_42085" x1="20.0447" y1="8.90894" x2="31.4856" y2="56.0059" gradientUnits="userSpaceOnUse">
<stop stop-color="#33ACFE"/>
<stop offset="0.999443" stop-color="#244358"/>
</linearGradient>
<radialGradient id="paint1_radial_3789_42085" cx="0" cy="0" r="1" gradientUnits="userSpaceOnUse" gradientTransform="translate(30.4467 46.0591) rotate(-13.0779) scale(2.29334 2.28327)">
<stop stop-color="#FFFE9B"/>
<stop offset="0.567708" stop-color="#F9E22A"/>
<stop offset="1" stop-color="#8D6F02"/>
</radialGradient>
<radialGradient id="paint2_radial_3789_42085" cx="0" cy="0" r="1" gradientUnits="userSpaceOnUse" gradientTransform="translate(28.9695 40.7266) rotate(-12.1222) scale(2.29341 2.28318)">
<stop stop-color="#76E7C5"/>
<stop offset="0.515625" stop-color="#33D291"/>
<stop offset="1" stop-color="#1B5C45"/>
</radialGradient>
<radialGradient id="paint3_radial_3789_42085" cx="0" cy="0" r="1" gradientUnits="userSpaceOnUse" gradientTransform="translate(8498.93 7052.74) scale(57.428 51.0806)">
<stop stop-color="#A6C6E4"/>
<stop offset="0.82" stop-color="#5B97D0"/>
<stop offset="1" stop-color="#244767"/>
</radialGradient>
<radialGradient id="paint4_radial_3789_42085" cx="0" cy="0" r="1" gradientUnits="userSpaceOnUse" gradientTransform="translate(27.765 35.4366) rotate(-13.078) scale(2.29333 2.28327)">
<stop stop-color="#5DD3FF"/>
<stop offset="0.630208" stop-color="#33ACFE"/>
<stop offset="1" stop-color="#194E71"/>
</radialGradient>
<radialGradient id="paint5_radial_3789_42085" cx="0" cy="0" r="1" gradientUnits="userSpaceOnUse" gradientTransform="translate(14954.5 5688.72) rotate(-15.3892) scale(86.0841 81.0655)">
<stop stop-color="#96D6DC"/>
<stop offset="0.74" stop-color="#00ABB3"/>
<stop offset="1" stop-color="#007378"/>
</radialGradient>
<radialGradient id="paint6_radial_3789_42085" cx="0" cy="0" r="1" gradientUnits="userSpaceOnUse" gradientTransform="translate(28.8948 11.202) rotate(-16.4137) scale(2.69095 2.6799)">
<stop stop-color="#86F3D2"/>
<stop offset="0.619792" stop-color="#33D291"/>
<stop offset="1" stop-color="#268361"/>
</radialGradient>
<radialGradient id="paint7_radial_3789_42085" cx="0" cy="0" r="1" gradientUnits="userSpaceOnUse" gradientTransform="translate(28.8948 11.202) rotate(-16.4137) scale(2.69095 2.6799)">
<stop stop-color="#86F3D2"/>
<stop offset="0.619792" stop-color="#33D291"/>
<stop offset="1" stop-color="#268361"/>
</radialGradient>
<radialGradient id="paint8_radial_3789_42085" cx="0" cy="0" r="1" gradientUnits="userSpaceOnUse" gradientTransform="translate(14940.2 5693.14) rotate(-15.3892) scale(86.0841 81.0654)">
<stop stop-color="#96D6DC"/>
<stop offset="0.74" stop-color="#00ABB3"/>
<stop offset="1" stop-color="#007378"/>
</radialGradient>
<radialGradient id="paint9_radial_3789_42085" cx="0" cy="0" r="1" gradientUnits="userSpaceOnUse" gradientTransform="translate(14.6312 15.6263) rotate(-16.4137) scale(2.69095 2.6799)">
<stop stop-color="#86F3D2"/>
<stop offset="0.619792" stop-color="#33D291"/>
<stop offset="1" stop-color="#268361"/>
</radialGradient>
<radialGradient id="paint10_radial_3789_42085" cx="0" cy="0" r="1" gradientUnits="userSpaceOnUse" gradientTransform="translate(14.6312 15.6263) rotate(-16.4137) scale(2.69095 2.6799)">
<stop stop-color="#86F3D2"/>
<stop offset="0.619792" stop-color="#33D291"/>
<stop offset="1" stop-color="#268361"/>
</radialGradient>
<image id="image0_3789_42085" width="124" height="113" xlink:href="data:image/png;base64,iVBORw0KGgoAAAANSUhEUgAAAHwAAABxCAYAAAAXgMdgAAAACXBIWXMAAAsSAAALEgHS3X78AAACB0lEQVR4Xu3cQW7CQBAF0SbK/a/srCw5JAMJeOD3VL21Ba0uj2GBuGzbVuL4uHeB1mJwGIPDGBzG4DAGhzE4jMFhDA5jcBiDwxgcxuAwBocxOIzBYQwOY3AYg8MYHMbgMAaHMTiMwWEMDmNwGIPDGBzG4DAGhzE4jMFhDA5jcBiDw3zeu2Axj/6hzeXeBV2sHvzRwNeOr9M6/orBz4o80jr+Sp/hW82Pfe3V7/e0FU74u5e+v3+L0979hL879lHSLENdg7/j8f0XiTN90zF4+lKj5+sWPHqZHXQK3il27Kxdgscu8IbImTsEj1xcVx2C60Tpwbuf7rj5k4PHLWsFycE1QWpwT/ckqcE1icFhEoP7OJ8oMbgmMvhccT+KMDiMwWEMPk/c47zK4DgGnyPydFdlBo9d1goSg3cXfcMa/FzRsatyg8cv7hctZk4N3k2L2FXZwbssscucVZUdvCp/menz/ZAevCp3qalz3dQheFXWci+VNc+/dAlelbHkhBme0u0PAfaFv/JXMe0jH3ULvntF+KVC77oG350dfsnIR92D70ahRjfC8mFHVgk+gg070ulbuk5gcBiDwxgcxuAwBocxOIzBYQwOY3AYg8MYHMbgMAaHMTiMwWEMDmNwGIPDGBzG4DAGhzE4jMFhDA5jcBiDwxgcxuAwBocxOIzBYQwOY3AYg8N8AcuwI/L37LFUAAAAAElFTkSuQmCC"/>
<image id="image1_3789_42085" width="127" height="115" xlink:href="data:image/png;base64,iVBORw0KGgoAAAANSUhEUgAAAH8AAABzCAYAAACxf91oAAAACXBIWXMAAAsSAAALEgHS3X78AAACF0lEQVR4Xu3c0U7CQBgF4cX4/q+MN9Y0FcQGWs7Zme+6mPWf3dJE8HK9XoeYPh5doHkZH8z4YMYHMz6Y8cGMD2Z8MOODGR/M+GDGBzM+mPHBjA9mfDDjgxkfzPhgxgczPpjxwYwPZnww44MZH8z4YMYHMz6Y8cGMD2Z8MOODGR/M+GCfjy6Y2N5/RnR5dEEbUvy9sbe2r6/fDLPHfzb4X5afXbsJZox/ZPBbajfBTPHPjr5Vtwlmedp/d/i1pLX8qT3+dWQOO3FNvzTHTx9w+vpq48cP9lv0Otse+KKH2abp5LeGj113U/xmkRugJX7k8No1xDf8QdLjG/5A6fFnEreRk+PHDWs2yfF1sNT4nvoTpMbXCYwPZnywxPizvt/HfcInMb5OYnww458j7pY/hvHREuNHnpInxP4+ifF1EuMfK/bUj2H8I0WHHyM3fvzgZpAav13F5k2OXzHAG2rWnRy/UU34MfLjtwzzMnrW+iM9/hj5Q01f310N8cfIHXDquv6l6Yuay6AT/t5fHX3RcvLX3jn4yvf2e5pO/trZd4Fpgq+1xl+so7x6I0wZfK09/to21p7NMH3oW2aKv4UMukfjA59exPhgxgczPpjxwYwPZnww44MZH8z4YMYHMz6Y8cGMD2Z8MOODGR/M+GDGBzM+mPHBjA9mfDDjgxkfzPhgxgczPpjxwYwPZnww44MZH8z4YMYH+wIcRST7FY+AzgAAAABJRU5ErkJggg=="/>
</defs>
</svg>
